…
txcv_cases <- txcv %>% group_by(county_tx) %>% summarise(current_cases = max(cases), 
                                                              total_deaths = max(deaths))
txcv2 <- left_join(txcv_cases, txp, by = "county_tx")

## Warning: Column `county_tx` joining factors with different levels, coercing to
## character vector

txcv2 <- txcv2 %>% mutate(incidence = current_cases/population_est) %>% na.omit #Clay County omitted due to NAs

txcv2 %>% filter(current_cases == min(current_cases))

## # A tibble: 25 x 7
##    county_tx current_cases total_deaths population_est n_poverty med_income
##    <chr>             <int>        <int>          <int>     <int>      <int>
##  1 Bailey                1            0           7256      1087      45051
##  2 Brewster              1            0           9128      1475      45670
##  3 Briscoe               1            0           1535       245      44409
##  4 Brooks                1            0           7242      2183      30116
##  5 Childress             1            0           7007      1180      42291
##  6 Cochran               1            0           2931       609      42873
##  7 Coke                  1            0           3340       469      44804
##  8 Coleman               1            0           8483      1604      39484
##  9 Collings~             1            0           2943       502      39536
## 10 Concho                1            0           2044       702      40987
## # ... with 15 more rows, and 1 more variable: incidence <dbl>
…
