Project 1: Exploratory Data Analysis
…
`?`(DMepi)

Tidying and Joining

untidy_pr <- pr %>% pivot_wider(names_from = sex, values_from = c("X", 
    "N"))
untidy_pr

## # A tibble: 100 x 5
##        A   X_F   X_M   N_F   N_M
##    <dbl> <dbl> <dbl> <dbl> <dbl>
##  1     0     1     0 30743 32435
##  2    10    84    83 32922 34294
##  3    11   106    70 32890 34644
##  4    12   104   111 33630 35439
##  5    13   133   120 33833 35681
##  6    14   144   145 34982 37062
##  7    15   149   184 35482 37064
##  8    16   189   169 34313 36169
##  9    17   166   197 34588 36576
## 10    18   191   164 33236 34915
## # ... with 90 more rows

tidy_pr <- untidy_pr %>% pivot_longer(c("X_F", "X_M", "N_F", 
    "N_M"), names_to = "sex", values_to = c("X", "N"))
tidy_pr

## # A tibble: 400 x 4
##        A sex       X     N
##    <dbl> <chr> <dbl> <dbl>
##  1     0 X_F       1    NA
##  2     0 X_M      NA     0
##  3     0 N_F   30743    NA
##  4     0 N_M      NA 32435
##  5    10 X_F      84    NA
##  6    10 X_M      NA    83
##  7    10 N_F   32922    NA
##  8    10 N_M      NA 34294
##  9    11 X_F     106    NA
## 10    11 X_M      NA    70
## # ... with 390 more rows

untidy_epi <- DMepi %>% pivot_wider(names_from = sex, values_from = X) %>% 
    rename(M_Incidence = M)
untidy_epi

## # A tibble: 4,200 x 8
##        A     P  D.DM   Y.DM  D.nD   Y.nD M_Incidence     F
##    <dbl> <dbl> <dbl>  <dbl> <dbl>  <dbl>       <dbl> <dbl>
##  1     0  1996     0 0.484     28 35469.           1    NA
##  2     0  1997     0 0.640     19 35085.           2    NA
##  3     0  1998     0 1.64      20 34240.           4    NA
##  4     0  1999     0 0.552     11 34056.           4    NA
##  5     0  2000     0 2.51      21 34002.           4    NA
##  6     0  2001     0 0.118     16 34177.           1    NA
##  7     0  2002     0 0.0116    21 33101.           1    NA
##  8     0  2003     0 0.691     15 33011.           3    NA
##  9     0  2004     0 1.70      16 33167.           4    NA
## 10     0  2005     0 0.291     16 33066.           1    NA
## # ... with 4,190 more rows

tidy_epi <- untidy_epi %>% pivot_longer(M_Incidence, names_to = "sex", 
    values_to = "X") %>% mutate(sex = recode(sex, "'M_Incidence'='M'")) %>% 
    select(-"F")
tidy_epi

## # A tibble: 4,200 x 8
##        A     P  D.DM   Y.DM  D.nD   Y.nD sex       X
##    <dbl> <dbl> <dbl>  <dbl> <dbl>  <dbl> <chr> <dbl>
##  1     0  1996     0 0.484     28 35469. M         1
##  2     0  1997     0 0.640     19 35085. M         2
##  3     0  1998     0 1.64      20 34240. M         4
##  4     0  1999     0 0.552     11 34056. M         4
##  5     0  2000     0 2.51      21 34002. M         4
##  6     0  2001     0 0.118     16 34177. M         1
##  7     0  2002     0 0.0116    21 33101. M         1
##  8     0  2003     0 0.691     15 33011. M         3
##  9     0  2004     0 1.70      16 33167. M         4
## 10     0  2005     0 0.291     16 33066. M         1
## # ... with 4,190 more rows
…
summ_diabetes <- d_diabetes2 %>% group_by(Year, A) %>% summarise_at(vars(Deaths_diabetes, 
    Deaths_wo.diabetes, new_diabetes_diagnoses, num_diabetes_patients), 
    funs(mean, sd, var, IQR, min, max, q25 = quantile(., probs = 0.25), 
        q75 = quantile(., probs = 0.75)))
summ_diabetes

## # A tibble: 700 x 34
## # Groups:   Year [7]
##     Year     A Deaths_diabetes~ Deaths_wo.diabe~ new_diabetes_di~
##    <dbl> <dbl>            <dbl>            <dbl>            <dbl>
##  1  2010     0                0              9                1  
##  2  2010     1                0              7.5              5  
##  3  2010     2                0              4.5              4  
##  4  2010     3                0              3                6.5
##  5  2010     4                0              1.5              6.5
##  6  2010     5                0              1               11  
##  7  2010     6                0              3                8.5
##  8  2010     7                0              2.5             10  
##  9  2010     8                0              2.5             10.5
## 10  2010     9                0              1.5             15.5
## # ... with 690 more rows, and 29 more variables:
## #   num_diabetes_patients_mean <dbl>, Deaths_diabetes_sd <dbl>,
## #   Deaths_wo.diabetes_sd <dbl>, new_diabetes_diagnoses_sd <dbl>,
## #   num_diabetes_patients_sd <dbl>, Deaths_diabetes_var <dbl>,
## #   Deaths_wo.diabetes_var <dbl>, new_diabetes_diagnoses_var <dbl>,
## #   num_diabetes_patients_var <dbl>, Deaths_diabetes_IQR <dbl>,
## #   Deaths_wo.diabetes_IQR <dbl>, new_diabetes_diagnoses_IQR <dbl>,
## #   num_diabetes_patients_IQR <dbl>, Deaths_diabetes_min <dbl>,
## #   Deaths_wo.diabetes_min <dbl>, new_diabetes_diagnoses_min <dbl>,
…
